\BOOKMARK [1][-]{section.1}{\376\377\000I\000n\000t\000r\000o\000d\000u\000c\000t\000i\000o\000n}{}% 1
\BOOKMARK [1][-]{section.2}{\376\377\000H\000o\000w\000\040\000t\000o\000\040\000u\000s\000e\000\040\000L\000E\000A\000P}{}% 2
\BOOKMARK [2][-]{subsection.2.1}{\376\377\000I\000n\000s\000t\000a\000l\000l}{section.2}% 3
\BOOKMARK [2][-]{subsection.2.2}{\376\377\000R\000u\000n}{section.2}% 4
\BOOKMARK [1][-]{section.3}{\376\377\000A\000v\000a\000i\000l\000a\000b\000l\000e\000\040\000O\000p\000t\000i\000o\000n\000s}{}% 5
\BOOKMARK [2][-]{subsection.3.1}{\376\377\000P\000r\000o\000b\000C\000E\000L\000O\000E\000\040\000O\000p\000t\000i\000o\000n\000s}{section.3}% 6
\BOOKMARK [3][-]{subsubsection.3.1.1}{\376\377\000H\000i\000d\000d\000e\000n\000\040\000O\000p\000t\000i\000o\000n\000s\000\040\000\050\000f\000o\000r\000\040\000D\000e\000v\000e\000l\000o\000p\000e\000r\000s\000\040\000O\000n\000l\000y\000\051}{subsection.3.1}% 7
\BOOKMARK [2][-]{subsection.3.2}{\376\377\000E\000D\000G\000E\000\040\000O\000p\000t\000i\000o\000n\000s}{section.3}% 8
\BOOKMARK [3][-]{subsubsection.3.2.1}{\376\377\000H\000i\000d\000d\000e\000n\000\040\000O\000p\000t\000i\000o\000n\000s\000\040\000\050\000f\000o\000r\000\040\000D\000e\000v\000e\000l\000o\000p\000e\000r\000s\000\040\000O\000n\000l\000y\000\051}{subsection.3.2}% 9
\BOOKMARK [2][-]{subsection.3.3}{\376\377\000O\000t\000h\000e\000r\000\040\000\050\000f\000o\000r\000\040\000d\000e\000v\000e\000l\000o\000p\000e\000r\000s\000\040\000o\000n\000l\000y\000\051}{section.3}% 10
\BOOKMARK [3][-]{subsubsection.3.3.1}{\376\377\000C\000L\000I\000\137\000L\000E\000A\000P}{subsection.3.3}% 11
\BOOKMARK [1][-]{section.4}{\376\377\000A\000\040\000C\000o\000m\000p\000l\000e\000t\000e\000\040\000E\000x\000a\000m\000p\000l\000e}{}% 12
