\select@language {english}
\contentsline {section}{\numberline {1}Introduction}{1}{section.1}
\contentsline {section}{\numberline {2}How to use LEAP}{2}{section.2}
\contentsline {subsection}{\numberline {2.1}Install}{2}{subsection.2.1}
\contentsline {subsection}{\numberline {2.2}Run}{2}{subsection.2.2}
\contentsline {section}{\numberline {3}Available Options}{3}{section.3}
\contentsline {subsection}{\numberline {3.1}ProbCELOE Options}{3}{subsection.3.1}
\contentsline {subsubsection}{\numberline {3.1.1}Hidden Options (for Developers Only)}{3}{subsubsection.3.1.1}
\contentsline {subsection}{\numberline {3.2}EDGE Options}{3}{subsection.3.2}
\contentsline {subsubsection}{\numberline {3.2.1}Hidden Options (for Developers Only)}{4}{subsubsection.3.2.1}
\contentsline {subsection}{\numberline {3.3}Other (for developers only)}{4}{subsection.3.3}
\contentsline {subsubsection}{\numberline {3.3.1}CLI\_LEAP}{5}{subsubsection.3.3.1}
\contentsline {section}{\numberline {4}A Complete Example}{5}{section.4}
